{
    "eng" : {
        "bmi" : [
            {"score":-2,"code":"sev.undw","text":"Severely underweight"},
            {"score":-1,"code":"undw","text":"Underweight"},
            {"score":0,"code":"nrml","text":"Normal"},
            {"score":-1,"code":"ovw","text":"Overweight"},
            {"score":-2,"code":"obse","text":"Obese"},
            {"score":0,"code":"not.given","text":"Did Not Answer"}
        ],
        "cupsize": [
            {"score":4,"code":"0","text":"0"},
            {"score":3,"code":"1-3","text":"1-3"},
            {"score":2,"code":"4-6","text":"4-6"},
            {"score":1,"code":"6.or.more","text":"6 or more"}
         ],

        "friedAndFats": [
            {"score":4,"code":"2-3.meals","text":"2-3 meals/day"},
            {"score":3,"code":"once.a.day","text":"Once a day"},
            {"score":2,"code":"weekly","text":"Weekly"},
            {"score":1,"code":"occasionally","text":"Occasionally"}
        ],
        "saltyAndSweets": [
            {"score":4,"code":"2-3.times","text":"2-3 times/day"},
            {"score":3,"code":"once.a.day","text":"Once a day"},
            {"score":2,"code":"weekly","text":"Weekly"},
            {"score":1,"code":"occasionally","text":"Occasionally"}
        ],
        "plateContain":[
            {"score":4,"code":"1","text":"1"},
            {"score":3,"code":"2","text":"2"},
            {"score":2,"code":"3","text":"3"},
            {"score":1,"code":"all","text":"All of the above"}
        ],
        "drinks": [
            {"score":4,"code":"2-3.times","text":"2-3 times/day"},
            {"score":3,"code":"once.a.day","text":"Once a day"},
            {"score":2,"code":"weekly","text":"Weekly"},
            {"score":1,"code":"occasionally","text":"Occasionally"}
        ]
    },

    "tag" : {
        "bmi" : [
            {"score":-2,"code":"sev.undw","text":"Severely underweight"},
            {"score":-1,"code":"undw","text":"Underweight"},
            {"score":0,"code":"nrml","text":"Normal"},
            {"score":-1,"code":"ovw","text":"Overweight"},
            {"score":-2,"code":"obse","text":"Obese"},
            {"score":0,"code":"not.given","text":"Did Not Answer"}
        ],
        "cupsize": [
            {"score":4,"code":"0","text":"0"},
            {"score":3,"code":"1-3","text":"1-3"},
            {"score":2,"code":"4-6","text":"4-6"},
            {"score":1,"code":"6.or.more","text":"6 o higit"}
         ],

        "friedAndFats": [
            {"score":4,"code":"2-3.meals","text":"2 - 3 beses/araw"},
            {"score":3,"code":"once.a.day","text":"1 beses/araw"},
            {"score":2,"code":"weekly","text":"1 beses/linggo"},
            {"score":1,"code":"occasionally","text":"Minsan lang"}
        ],
        "saltyAndSweets": [
            {"score":4,"code":"2-3.times","text":"2 - 3 beses/araw"},
            {"score":3,"code":"once.a.day","text":"1 beses/araw"},
            {"score":2,"code":"weekly","text":"1 beses/linggo"},
            {"score":1,"code":"occasionally","text":"Minsan lang"}
        ],
        "plateContain":[
            {"score":4,"code":"1","text":"1"},
            {"score":3,"code":"2","text":"2"},
            {"score":2,"code":"3","text":"3"},
            {"score":1,"code":"all","text":"Lahat"}
        ],
        "drinks": [
            {"score":4,"code":"2-3.times","text":"2 - 3 beses/araw"},
            {"score":3,"code":"once.a.day","text":"1 beses/araw"},
            {"score":2,"code":"weekly","text":"1 beses/linggo"},
            {"score":1,"code":"occasionally","text":"Minsan lang"}
        ]
    },

    "hil" : {
        "bmi" : [
            {"score":-2,"code":"sev.undw","text":"Severely underweight"},
            {"score":-1,"code":"undw","text":"Underweight"},
            {"score":0,"code":"nrml","text":"Normal"},
            {"score":-1,"code":"ovw","text":"Overweight"},
            {"score":-2,"code":"obse","text":"Obese"},
            {"score":0,"code":"not.given","text":"Did Not Answer"}
        ],
        "cupsize": [
            {"score":4,"code":"0","text":"0"},
            {"score":3,"code":"1-3","text":"1-3"},
            {"score":2,"code":"4-6","text":"4-6"},
            {"score":1,"code":"6.or.more","text":"6 o mas damo pa"}
         ],

        "friedAndFats": [
            {"score":4,"code":"2-3.meals","text":"2-3 beses kada adlaw"},
            {"score":3,"code":"once.a.day","text":"1 beses kada adlaw"},
            {"score":2,"code":"weekly","text":"Kada semana"},
            {"score":1,"code":"occasionally","text":"Kaisa lang"}
        ],
        "saltyAndSweets": [
            {"score":4,"code":"2-3.times","text":"2-3 beses kada adlaw"},
            {"score":3,"code":"once.a.day","text":"1 beses kada adlaw"},
            {"score":2,"code":"weekly","text":"Kada semana"},
            {"score":1,"code":"occasionally","text":"Kaisa lang"}
        ],
        "plateContain":[
            {"score":4,"code":"1","text":"1"},
            {"score":3,"code":"2","text":"2"},
            {"score":2,"code":"3","text":"3"},
            {"score":1,"code":"all","text":"Tana ini"}
        ],
        "drinks": [
            {"score":4,"code":"2-3.times","text":"2-3 beses kada adlaw"},
            {"score":3,"code":"once.a.day","text":"1 beses kada adlaw"},
            {"score":2,"code":"weekly","text":"Kada semana"},
            {"score":1,"code":"occasionally","text":"Kaisa lang"}
        ]
    },

    "khm" : {
        "bmi" : [
            {"score":-2,"code":"sev.undw","text":"Severely underweight"},
            {"score":-1,"code":"undw","text":"Underweight"},
            {"score":0,"code":"nrml","text":"Normal"},
            {"score":-1,"code":"ovw","text":"Overweight"},
            {"score":-2,"code":"obse","text":"Obese"},
            {"score":0,"code":"not.given","text":"Did Not Answer"}
        ],
        "cupsize": [
            {"score":4,"code":"0","text":"0"},
            {"score":3,"code":"1-3","text":"1-3"},
            {"score":2,"code":"4-6","text":"4-6"},
            {"score":1,"code":"6.or.more","text":"6 ឬច្រើនជាងនេ"}
         ],

        "friedAndFats": [
            {"score":4,"code":"2-3.meals","text":"2-3 អាហារ / ថ្ងៃ"},
            {"score":3,"code":"once.a.day","text":"ម្ដង​ក្នុង​មួយ​ថ្ងៃ"},
            {"score":2,"code":"weekly","text":"ប្រចាំសប្តាហ៍"},   
            {"score":1,"code":"occasionally","text":"ម្តងម្កាល"}
        ],
        "saltyAndSweets": [
            {"score":4,"code":"2-3.meals","text":"2-3 អាហារ / ថ្ងៃ"},
            {"score":3,"code":"once.a.day","text":"ម្ដង​ក្នុង​មួយ​ថ្ងៃ"},
            {"score":2,"code":"weekly","text":"ប្រចាំសប្តាហ៍"},   
            {"score":1,"code":"occasionally","text":"ម្តងម្កាល"}
        ],
        "plateContain":[
            {"score":4,"code":"1","text":"1"},
            {"score":3,"code":"2","text":"2"},
            {"score":2,"code":"3","text":"3"},
            {"score":1,"code":"all","text":"ទាំង​អស់​ខាង​លើ​នេ"}
        ],
        "drinks": [
            {"score":4,"code":"2-3.times","text":"2​ទៅ3ដងក្នុងមួយថ្ងៃ"},
            {"score":3,"code":"once.a.day","text":"ម្ដង​ក្នុង​មួយ​ថ្ងៃ"},
            {"score":2,"code":"weekly","text":"ប្រចាំសប្តាហ៍"},   
            {"score":1,"code":"occasionally","text":"ម្តងម្កាល"}
        ]
    },

    "hin" : {
        "bmi" : [
            {"score":-2,"code":"sev.undw","text":"Severely underweight"},
            {"score":-1,"code":"undw","text":"Underweight"},
            {"score":0,"code":"nrml","text":"Normal"},
            {"score":-1,"code":"ovw","text":"Overweight"},
            {"score":-2,"code":"obse","text":"Obese"},
            {"score":0,"code":"not.given","text":"Did Not Answer"}
        ],
        "cupsize": [
            {"score":4,"code":"0","text":"0"},
            {"score":3,"code":"1-3","text":"1-3"},
            {"score":2,"code":"4-6","text":"4-6"},
            {"score":1,"code":"6.or.more","text":"6/अधिक"}
         ],
    
        "friedAndFats": [
            {"score":4,"code":"2-3.meals","text":"2 - 3 बार / दिन"},
            {"score":3,"code":"once.a.day","text":"दिन में एक बार"},
            {"score":2,"code":"weekly","text":"साप्ताहिक"},
            {"score":1,"code":"occasionally","text":"कभी कभी"}
        ],
        "saltyAndSweets": [
            {"score":4,"code":"2-3.times","text":"2 - 3 बार / दिन"},
            {"score":3,"code":"once.a.day","text":"दिन में एक बार"},
            {"score":2,"code":"weekly","text":"साप्ताहिक"},
            {"score":1,"code":"occasionally","text":"कभी कभी"}
        ],
        "plateContain":[
            {"score":4,"code":"1","text":"1"},
            {"score":3,"code":"2","text":"2"},
            {"score":2,"code":"3","text":"3"},
            {"score":1,"code":"all","text":"ऊपर के सभी"}
        ],
        "drinks": [
            {"score":4,"code":"2-3.times","text":"2 - 3 बार / दिन"},
            {"score":3,"code":"once.a.day","text":"दिन में एक बार"},
            {"score":2,"code":"weekly","text":"साप्ताहिक"},
            {"score":1,"code":"occasionally","text":"कभी कभी"}
        ]
    },

    "kan" : {
        "bmi" : [
            {"score":-2,"code":"sev.undw","text":"Severely underweight"},
            {"score":-1,"code":"undw","text":"Underweight"},
            {"score":0,"code":"nrml","text":"Normal"},
            {"score":-1,"code":"ovw","text":"Overweight"},
            {"score":-2,"code":"obse","text":"Obese"},
            {"score":0,"code":"not.given","text":"Did Not Answer"}
        ],
        "cupsize": [
            {"score":4,"code":"0","text":"0"},
            {"score":3,"code":"1-3","text":"1-3"},
            {"score":2,"code":"4-6","text":"4-6"},
            {"score":1,"code":"6.or.more","text":"6 ಅಥವಾ ಹೆಚ್ಚು"}
         ],

        "friedAndFats": [
            {"score":4,"code":"2-3.meals","text":"ದಿನಕ್ಕೆ 2-3 ಬಾರಿ"},
            {"score":3,"code":"once.a.day","text":"ದಿನಕ್ಕೆ ಒಮ್ಮೆ"},
            {"score":2,"code":"weekly","text":"ಸಾಪ್ತಾಹಿಕ"},
            {"score":1,"code":"occasionally","text":"ಕೆಲವೊಮ್ಮೆ"}
        ],
        "saltyAndSweets": [
            {"score":4,"code":"2-3.meals","text":"ದಿನಕ್ಕೆ 2-3 ಬಾರಿ"},
            {"score":3,"code":"once.a.day","text":"ದಿನಕ್ಕೆ ಒಮ್ಮೆ"},
            {"score":2,"code":"weekly","text":"ಸಾಪ್ತಾಹಿಕ"},
            {"score":1,"code":"occasionally","text":"ಕೆಲವೊಮ್ಮೆ"}
        ],
        "plateContain":[
            {"score":4,"code":"1","text":"1"},
            {"score":3,"code":"2","text":"2"},
            {"score":2,"code":"3","text":"3"},
            {"score":1,"code":"all","text":"ಮೇಲಿನ ಎಲ್ಲವೂ"}
        ],
        "drinks": [
            {"score":4,"code":"2-3.times","text":"2-3 / ಟ / ದಿನ"},
            {"score":3,"code":"once.a.day","text":"ದಿನಕ್ಕೆ ಒಮ್ಮೆ"},
            {"score":2,"code":"weekly","text":"ಸಾಪ್ತಾಹಿಕ"},
            {"score":1,"code":"occasionally","text":"ಕೆಲವೊಮ್ಮೆ"}
        ]
    }
}