{
  "eng" : {
    "bmi" : [
        {"score":-2,"code":"sev.undw","text":"Severely underweight"},
        {"score":-1,"code":"undw","text":"Underweight"},
        {"score":0,"code":"nrml","text":"Normal"},
        {"score":-1,"code":"ovw","text":"Overweight"},
        {"score":-2,"code":"obse","text":"Obese"},
        {"score":0,"code":"unknown","text":"Did Not Answer"}
    ],
    "smoking" : [
        {"score":0,"code":"no","text":"No"},
        {"score":-1,"code":"arnd","text":"No - but around me"},
        {"score":-2,"code":"ocsn","text":"Yes, Occasionally"},
        {"score":-2,"code":"dly","text":"Yes, Daily"}
    ],
    "alcohol" : [
        {"score":0,"code":"no","text":"I don't drink"},
        {"score":-1,"code":"3-4.mo","text":"3-4 times a month"},
        {"score":-1,"code":"3-4.wk","text":"3-4 times a week"},
        {"score":-2,"code":"dly","text":"I drink daily"}
    ],
    "nutrition" : [
        {"score":-2,"code":"0","text":"0"},
        {"score":-1,"code":"1-3","text":"1-3"},
        {"score":0,"code":"4-6","text":"4-6"},
        {"score":0,"code":"6.or.more","text":"6 or more"}
    ],
    "exercise" : [
        {"score":0,"code":"5/wk.or.less","text":"I exercise every day"},
        {"score":0,"code":"dly","text":"Daily, physical work"},
        {"score":0,"code":"5/wk.or.less","text":"5hrs/week or less"},
        {"score":-1,"code":"1-2/mo.or.less","text":"1-2hrs/month or less"},
        {"score":-2,"code":"no","text":"I dont exercise"}
    ],
    "frequency": [
        {"score": 0, "code": "frqntly-described", "text":"Prescribed frequency"},
        {"score": -1, "code": "miss-sometime", "text": "I miss sometimes"},
        {"score": -2, "code": "when-unwell", "text": "Only when I'm unwell"},    
        {"score": -2, "code": "stped-meds", "text": "I stopped medication"},
        {"score": 0, "code": "Prescribed frequency", "text":"Prescribed frequency"},
        {"score": -1, "code": "I miss sometimes", "text": "I miss sometimes"},
        {"score": -2, "code": "Only when I'm unwell", "text": "Only when I'm unwell"},    
        {"score": -2, "code": "I stopped medication", "text": "I stopped medication"},
        {"score": 0, "code": "unknown", "text": "I have none of these"},
        {"score": 0, "code": "unknown", "text": "unknown"}
    ]
  },
  "tag" : {
    "bmi" : [
        {"score":-2,"code":"sev.undw","text":"Severely underweight"},
        {"score":-1,"code":"undw","text":"Underweight"},
        {"score":0,"code":"nrml","text":"Normal"},
        {"score":-1,"code":"ovw","text":"Overweight"},
        {"score":-2,"code":"obse","text":"Obese"},
        {"score":0,"code":"unknown","text":"Hindi Sinagot"}
    ],
    "smoking" : [
        {"score":0,"code":"no","text":"Hindi"},
        {"score":-1,"code":"arnd","text":"Hindi, sa paligid ko"},
        {"score":-2,"code":"ocsn","text":"Oo, minsan"},
        {"score":-2,"code":"dly","text":"Oo, araw-araw"}        
    ],
    "alcohol" : [
        {"score":0,"code":"no","text":"Hindi ako umiinom"},
        {"score":-1,"code":"3-4.mo","text":"3-4 beses/buwan"},
        {"score":-1,"code":"3-4.wk","text":"3-4 beses/linggo"},
        {"score":-2,"code":"dly","text":"Araw-araw"}
    ],
    "nutrition" : [
        {"score":-2,"code":"0","text":"0"},
        {"score":-1,"code":"1-3","text":"1-3"},
        {"score":0,"code":"4-6","text":"4-6"},
        {"score":0,"code":"6.or.more","text":"6 o higit pa"}
    ],
    "exercise" : [
        {"score":0,"code":"5/wk.or.less","text":"Araw-araw"},
        {"score":0,"code":"dly","text":"Sa pagttrabaho"},
        {"score":0,"code":"5/wk.or.less","text":"5 oras/linggo"},
        {"score":-1,"code":"1-2/mo.or.less","text":"1-2hrs/buwan"},
        {"score":-2,"code":"no","text":"Di ako nag-ehersisyo"}
    ],
    "frequency": [
        {"score": 0, "code": "frqntly-described", "text":"Kadalas ng prescribe"},
        {"score": -1, "code": "miss-sometime", "text": "Nakakalimutan minsan"},
        {"score": -2, "code": "when-unwell", "text": "Kapag may sakit lang"},
        {"score": -2, "code": "stped-meds", "text": "Tinigil ko na"},
        {"score": 0, "code": "Kadalas ng prescribe", "text":"Kadalas ng prescribe"},
        {"score": -1, "code": "Nakakalimutan minsan", "text": "Nakakalimutan minsan"},
        {"score": -2, "code": "Kapag may sakit lang", "text": "Kapag may sakit lang"},
        {"score": -2, "code": "Tinigil ko na", "text": "Tinigil ko na"},
        {"score": 0, "code": "unknown", "text": "Wala ako nito"},
        {"score": 0, "code": "unknown", "text": "unknown"}
        
    ]
  },
  "hil" : {
    "bmi" : [
        {"score":-2,"code":"sev.undw","text":"Severely underweight"},
        {"score":-1,"code":"undw","text":"Underweight"},
        {"score":0,"code":"nrml","text":"Normal"},
        {"score":-1,"code":"ovw","text":"Overweight"},
        {"score":-2,"code":"obse","text":"Obese"},
        {"score":0,"code":"unknown","text":"Hindi Sinagot"}
    ],
    "smoking" : [
        {"score":0,"code":"no","text":"Indi"},
        {"score":-1,"code":"arnd","text":"Indi-pero sa palibot"},
        {"score":-2,"code":"ocsn","text":"Oo, talagsa"},
        {"score":-2,"code":"dly","text":"Oo, adlaw adlaw"}        
    ],
    "alcohol" : [
        {"score":0,"code":"no","text":"Wala ako ga-inom"},
        {"score":-1,"code":"3-4.mo","text":"3-4 ka beses/bulan"},
        {"score":-1,"code":"3-4.wk","text":"3-4 ka beses/semana"},
        {"score":-2,"code":"dly","text":"Adlaw - adlaw"}        
    ],
    "nutrition" : [
        {"score":-2,"code":"0","text":"0"},
        {"score":-1,"code":"1-3","text":"1-3"},
        {"score":0,"code":"4-6","text":"4-6"},
        {"score":0,"code":"6.or.more","text":"6 o mas damo pa"}
    ],
    "exercise" : [
        {"score":0,"code":"5/wk.or.less","text":"Adlaw adlaw"},
        {"score":0,"code":"dly","text":"Kung ako mag-ubra"},
        {"score":0,"code":"5/wk.or.less","text":"5 ka oras/semana"},
        {"score":-1,"code":"1-2/mo.or.less","text":"1-2 ka oras/bulan"},
        {"score":-2,"code":"no","text":"Wala ko ga-ehersisyo"}
    ],
    "frequency": [
        {"score": -2, "code": "stpedmeds", "text": "Nag untat na ko inom"},
        {"score": 0, "code": "Base sa akon reseta", "text":"Base sa akon reseta"},
        {"score": -1, "code": "Gakalipat ko kis-a", "text": "Gakalipat ko kis-a"},
        {"score": -2, "code": "Kung lain lang matyag", "text": "Kung lain lang matya"},
        {"score": -2, "code": "Nag untat na ko inom", "text": "Nag untat na ko inom"},
        {"score": 0, "code": "frqntly-described", "text":"Base sa akon reseta"},
        {"score": -1, "code": "miss-sometime", "text": "Gakalipat ko kis-a"},
        {"score": -2, "code": "when-unwell", "text": "Kung lain lang matyag"},
        {"score": 0, "code": "unknown", "text": "Wala ako sangmga ini"},
        {"score": 0, "code": "unknown", "text": "unknown"}

    ]
  },
  "hin" : {
    "bmi" : [
        {"score":-2,"code":"sev.undw","text":"Severely underweight"},
        {"score":-1,"code":"undw","text":"Underweight"},
        {"score":0,"code":"nrml","text":"Normal"},
        {"score":-1,"code":"ovw","text":"Overweight"},
        {"score":-2,"code":"obse","text":"Obese"}
    ],
    "smoking" :  [
        {"score":0,"code":"no","text":"नहीं"},
        {"score":-1,"code":"arnd","text":"नहीं-पर आसपास हाँ"},
        {"score":-2,"code":"ocsn","text":"हाँ-कभी कभी"},
        {"score":-2,"code":"dly","text":"हाँ-हर दिन"}
    ],
    "alcohol" : [
        {"score":0,"code":"no","text":"शराब नहीं पीता"},
        {"score":-1,"code":"3-4.mo","text":"महीने में 3-4 बार"},
        {"score":-1,"code":"3-4.wk","text":"हफ्ते में 3-4 बार"},
        {"score":-2,"code":"dly","text":"रोज पीता हूं"}
    ],
    "nutrition" : [
        {"score":-2,"code":"0","text":"0"},
        {"score":-1,"code":"1-3","text":"1-3"},
        {"score":0,"code":"4-6","text":"4-6"},
        {"score":0,"code":"6.or.more","text":"6/अधिक"}
    ],
    "exercise" : [
        {"score":0,"code":"5/wk.or.less","text":"हर दिन व्यायाम"},
        {"score":0,"code":"dly","text":"दैनिक, शारीरिक श्रम"},
        {"score":0,"code":"5/wk.or.less","text":">5 घंटे सप्ताह में"},
        {"score":-1,"code":"1-2/mo.or.less","text":">1-2 घंटे महीने में"},
        {"score":-2,"code":"no","text":"व्यायाम नहीं करता"}
    ],
    "frequency": [
        {"score": 0, "code": "frqntly-described", "text":"निर्धारित आवृत्ति"},
        {"score": -1, "code": "miss-sometime", "text": "कभी कभी"},
        {"score": -2, "code": "when-unwell", "text": "कभी कभी"},    
        {"score": -2, "code": "stped-meds", "text": "मैंने दवा बंद कर दी"},
        {"score": 0, "code": "निर्धारित आवृत्ति", "text":"निर्धारित आवृत्ति"},
        {"score": -1, "code": "कभी कभी", "text": "कभी कभी"},
        {"score": -2, "code": "कभी कभी", "text": "कभी कभी"},    
        {"score": -2, "code": "मैंने दवा बंद कर दी", "text": "मैंने दवा बंद कर दी"},
        {"score": 0, "code": "unknown", "text": "इनमें कोई नहीं"},
        {"score": 0, "code": "unknown", "text": "unknown"}
    ]
  },

  "khm" : {
    "bmi" : [
        {"score":-2,"code":"sev.undw","text":"Severely underweight"},
        {"score":-1,"code":"undw","text":"Underweight"},
        {"score":0,"code":"nrml","text":"Normal"},
        {"score":-1,"code":"ovw","text":"Overweight"},
        {"score":-2,"code":"obse","text":"Obese"},
        {"score":0,"code":"unknown","text":"មិនបានឆ្លើយ"}
    ],
    "smoking" : [
        {"score":0,"code":"no","text":"អត់ទេ"},
        {"score":-1,"code":"arnd","text":"ទេ តែមានអ្នកជក់នៅជិត"},
        {"score":-2,"code":"ocsn","text":"ជក់ម្តងម្កាល"},
        {"score":-2,"code":"dly","text":"ជក់រាល់ថ្ងៃ"}
    ],
    "alcohol" : [
        {"score":0,"code":"no","text":"ខ្ញុំមិនផឹកស្រាទេ"},
        {"score":-1,"code":"3-4.mo","text":"1ខែផឹក3-4ដង"},
        {"score":-1,"code":"3-4.wk","text":"1អាទិត្យផឹក3-4ដង"},
        {"score":-2,"code":"dly","text":"ផឹករាល់ថ្ងៃ"}
    ],
    "nutrition" : [
        {"score":-2,"code":"0","text":"0"},
        {"score":-1,"code":"1-3","text":"1-3"},
        {"score":0,"code":"4-6","text":"4-6"},
        {"score":0,"code":"6.or.more","text":"៦ ឬច្រើនជាងនេះ"}
    ],
    "exercise" : [
        {"score":0,"code":"5/wk.or.less","text":"ខ្ញុំហាត់ប្រាណរាល់ថ្"},
        {"score":0,"code":"dly","text":"ប្រើកម្លាំងរាល់ថ្ងៃ"},
        {"score":0,"code":"5/wk.or.less","text":"1អាទិត្យយ៉ាងតិច5ម៉ោង"},
        {"score":-1,"code":"1-2/mo.or.less","text":"1ខែយ៉ាងតិច1-2ម៉ោង"},
        {"score":-2,"code":"no","text":"ខ្ញុំអត់ហាត់ប្រាណទេ"}
    ],
    "frequency": [
        {"score": 0, "code": "ប្រេកង់តាមវេជ្ជបញ្", "text":"ប្រេកង់តាមវេជ្ជបញ្"},
        {"score": -1, "code": "ខ្ខ្ញុំនឹកពេលខ្លះ", "text": "ខ្ខ្ញុំនឹកពេលខ្លះ"},
        {"score": -2, "code": "តែពេលខ្ញុំមិនស្រ", "text": "តែពេលខ្ញុំមិនស្រ"},
        {"score": -2, "code": "ញុំឈប់ប្រើថ្នាំ", "text": "ខ្ញុំឈប់ប្រើថ្នាំ"},
        {"score": 0, "code": "unknown", "text": "មិនបានឆ្លើយ"},
        {"score": 0, "code": "unknown", "text": "unknown"},
        {"score": 0, "code": "frqntly-described", "text":"ប្រេកង់តាមវេជ្ជបញ្"},
        {"score": -1, "code": "miss-sometime", "text": "ខ្ញុំនឹកពេលខ្លះ"},
        {"score": -2, "code": "when-unwell", "text": "តែពេលខ្ញុំមិនស្រ"},    
        {"score": -2, "code": "stped-meds", "text": "ខ្ញុំឈប់ប្រើថ្នាំ"}
    ]
  },
  "kan" : {
    "bmi" : [
        {"score":-2,"code":"sev.undw","text":"Severely underweight"},
        {"score":-1,"code":"undw","text":"Underweight"},
        {"score":0,"code":"nrml","text":"Normal"},
        {"score":-1,"code":"ovw","text":"Overweight"},
        {"score":-2,"code":"obse","text":"Obese"},
        {"score":0,"code":"unknown","text":"Did Not Answer"}
    ],
    "smoking" : [
        {"score":0,"code":"no","text":"ಇಲ್ಲ"},
        {"score":-1,"code":"arnd","text":"ಇಲ್ಲ - ಆದರೆ ಸುತ್ತಲೂ"},
        {"score":-2,"code":"ocsn","text":"ಹೌದು - ಆಕಸ್ಮಿಕವಾಗಿ"},
        {"score":-2,"code":"dly","text":"ಹೌದು - ಪ್ರತಿದಿನ"}
    ], 
    "alcohol" : [
        {"score":0,"code":"no","text":"ನಾನು ಕುಡಿಯುವುದಿಲ್ಲ"},
        {"score":-1,"code":"3-4.mo","text":"3-4 ಬಾರಿ / ತಿಂಗಳು"},
        {"score":-1,"code":"3-4.wk","text":"ವಾರಕ್ಕೆ 3-4 ಬಾರಿ"},
        {"score":-2,"code":"dly","text":"ದೈನಂದಿನ"}
    ],
    "nutrition" : [
        {"score":-2,"code":"0","text":"0"},
        {"score":-1,"code":"1-3","text":"1-3"},
        {"score":0,"code":"4-6","text":"4-6"},
        {"score":0,"code":"6.or.more","text":"6 ಅಥವಾ ಹೆಚ್ಚು"}
    ],
    "exercise" : [
        {"score":0,"code":"5/wk.or.less","text":"ದೈನಂದಿನ ವ್ಯಾಯಾಮ"},
        {"score":0,"code":"dly","text":"ದೈನಂದಿನ,ಕೆಲಸದ ಮೂಲಕ"},
        {"score":0,"code":"5/wk.or.less","text":"> ವಾರಕ್ಕೆ 5 ಗಂಟೆ"},
        {"score":-1,"code":"1-2/mo.or.less","text":"> 1-2 ಗಂಟೆ / ತಿಂಗಳು"},
        {"score":-2,"code":"no","text":"ಸಕ್ರಿಯವಾಗಿಲ್ಲ"}
    ],
    "frequency": [
        {"score": 0, "code": "frqntly-described", "text":"ನಿಗದಿತ ಆವರ್ತನ"},
        {"score": -1, "code": "miss-sometime", "text": "ತಪ್ಪಿಸಿಕೊಡಿದ್ದೀನಿ"},
        {"score": -2, "code": "when-unwell", "text": "ನನ್ನಗೆ ಹುಷಾರಿಲ್ಲದಾಗ"},    
        {"score": -2, "code": "stped-meds", "text": "ಔಷಧಿಯ ನಿಲ್ಲಿಸಿದಿನಿ"},
        {"score": 0, "code": "ನಿಗದಿತ ಆವರ್ತನ", "text":"ನಿಗದಿತ ಆವರ್ತನ"},
        {"score": -1, "code": "ತಪ್ಪಿಸಿಕೊಡಿದ್ದೀನಿ", "text": "ತಪ್ಪಿಸಿಕೊಡಿದ್ದೀನಿ"},
        {"score": -2, "code": "ನನ್ನಗೆ ಹುಷಾರಿಲ್ಲದಾಗ", "text": "ನನ್ನಗೆ ಹುಷಾರಿಲ್ಲದಾಗ"},    
        {"score": -2, "code": "ಔಷಧಿಯ ನಿಲ್ಲಿಸಿದಿನಿ", "text": "ಔಷಧಿಯ ನಿಲ್ಲಿಸಿದಿನಿ"},
        {"score": 0, "code": "unknown", "text": "ಯಾವುದೂ"},
        {"score": 0, "code": "unknown", "text": "unknown"}
    ]
  }
}









 

 




